/* XPM */
static char *overviewer_gui[] = {
/* columns rows colors chars-per-pixel */
"32 32 135 2 ",
"   c None",
".  c #5F5E20",
"X  c #514F3A",
"o  c #5C5D36",
"O  c #52503B",
"+  c #595938",
"@  c #605F21",
"#  c #616022",
"$  c #676628",
"%  c #686729",
"&  c #6C6B2C",
"*  c #6E6D31",
"=  c #64613F",
"-  c #67683F",
";  c #706E32",
":  c #737334",
">  c #767639",
",  c #787739",
"<  c #7F7F3F",
"1  c #5B5A43",
"2  c #656341",
"3  c #686745",
"4  c #6B6A45",
"5  c #65644A",
"6  c #6C6B4D",
"7  c #726E4B",
"8  c #6F714C",
"9  c #74734C",
"0  c #7B7B4C",
"q  c #6E6D51",
"w  c #706F50",
"e  c #747252",
"r  c #7A7754",
"t  c #7C7955",
"y  c #7C7A59",
"u  c #827E5C",
"i  c #7F805E",
"p  c #838344",
"a  c #82815D",
"s  c #858462",
"d  c #8D8B65",
"f  c #8E8F6E",
"g  c #93946C",
"h  c #949171",
"j  c #9D9E75",
"k  c #A19E7C",
"l  c #A5A665",
"z  c #AAA864",
"x  c #A8A26E",
"c  c #AFAC6B",
"v  c #B3B36A",
"b  c #A8A270",
"n  c #A6A77C",
"m  c #A5A87B",
"M  c #AAAA7D",
"N  c #B4B573",
"B  c #B9B774",
"V  c #B6B872",
"C  c #BBBA74",
"Z  c #B3B378",
"A  c #BAB57D",
"S  c #B7B97C",
"D  c #BCBA78",
"F  c #BFC07A",
"G  c #C1C27C",
"H  c #A7A781",
"J  c #AFAE85",
"K  c #A7A689",
"L  c #AFB081",
"P  c #B2B382",
"I  c #B9BC86",
"U  c #B2B38B",
"Y  c #B8B78A",
"T  c #B5B989",
"R  c #BCBC89",
"E  c #AEAD90",
"W  c #B5B497",
"Q  c #BCBC94",
"!  c #B5B599",
"~  c #BEBB99",
"^  c #BFC286",
"/  c #BDC191",
"(  c #C3C484",
")  c #C7C886",
"_  c #CDCC86",
"`  c #C3C48D",
"'  c #CBCD8B",
"]  c #D1CE8E",
"[  c #CCD08C",
"{  c #C2C292",
"}  c #C5CB91",
"|  c #CBCC93",
" . c #C6C39E",
".. c #C9C69D",
"X. c #C5C998",
"o. c #CBCB9D",
"O. c #D0CF9D",
"+. c #CED192",
"@. c #D1D495",
"#. c #D5D994",
"$. c #D3D39C",
"%. c #D5DA98",
"&. c #DADD9D",
"*. c #C3C4A6",
"=. c #CAC6A2",
"-. c #CBCAA3",
";. c #C8C5A8",
":. c #CDC9A8",
">. c #D1CEA4",
",. c #D2CEA9",
"<. c #D3D4A3",
"1. c #D8D6A7",
"2. c #D6D8A1",
"3. c #DADAA2",
"4. c #D5D3AC",
"5. c #DAD7A9",
"6. c #D7D8AD",
"7. c #DADAAB",
"8. c #D2CFB1",
"9. c #D4D3B2",
"0. c #D8D6B2",
"q. c #DDDBB5",
"w. c #DEDCBE",
"e. c #E0DEAC",
"r. c #E1DEB3",
"t. c #E1DEB9",
"y. c #DDE0A7",
"u. c #DFE0B5",
"i. c #E1E3AD",
"p. c #E4E4BE",
"a. c #E7E8BD",
"s. c #E9E9BC",
"d. c #E7E6C0",
"f. c #E8E6C0",
"g. c #E9EAC1",
/* pixels */
"                                                                ",
"                                                                ",
"                                                                ",
"                                = 2 = 2                         ",
"                                t t u r                         ",
"                            = 7 ..4.4.=.r =                     ",
"                            6 u ,.t.t.4.u 7                     ",
"                        = t *.:.t.f.g.g.>.~ 7 =                 ",
"                        9 d 9.0.9.0.p.a.p.:.a e                 ",
"                2 = = r X.4.d.9.i i / =.a.a.4.~ 7 =             ",
"                t t t d 4.u.u.8.q 8 H U u.a.u.:.u y             ",
"        2 2 = r ..>.1.5.6.0.9.*.1 X 2 9 / 2.g.g.9.;.e =         ",
"        9 7 7 a O.5.e.e.>.>.*.! 1 1 5 8 ` $.s.g.w.8.u 7         ",
"    = 4 Q =.:.>.3.e.3.] k d q q 1 5 n L +.#.&.y.g.f.,.~ 7 =     ",
"    r a ..4.;.-.3.3.%.| a a 9 9 q y n L [ #.%.3.s.s.r.=.u 7     ",
"@ > $.7.<.{ r t R ` ` Y 4 0 T Q *.Q 9 9 P { #.%.&.&.@.| B x 7 2 ",
"@ > 3.i.2./ 4 9 Z I R M 4 9 / X.<./ 8 3 M R @.%.#.#.' ) A x 4 2 ",
"@ : ) @.$.` - o 2 5 6 q s g } | X.I 2 1 q s ..<._ G < : ; *     ",
"@ : B G | ` 9 - = = 1 2 f j R I ^ m q 5 e s o.O.D v ; # # #     ",
"    & : D ) } ^ L m 2 6 ! E e 6 1 8 U Q ,.0.3.` : &             ",
"    @ % z C +.+./ T 8 e E K e 7 + 3 / X.u.u.} Z % #             ",
"        % , F [ 2.o.h s t a J H 4 9 ^ [ 6.o.> %                 ",
"        # * V ) 2.<.k h y s Y P 0 i N ^ O./ * .                 ",
"            * p +.3.6.0.{ ` ' _ N l : * > >                     ",
"            @ > ( | q.r.O.| G G N l % @ # #                     ",
"                * , G ] _ C : & & %                             ",
"                @ & c C C z $ # # #                             ",
"                    % % $ %                                     ",
"                    # # # #                                     ",
"                                                                ",
"                                                                ",
"                                                                "
};
